(export (version D)
  (design
    (source "D:/HG Robotics Intern 2018/Decade Capacitor 1.0/Decade Capacitor Switches with PCB/Decade Capacitor Switches.sch")
    (date "7/5/2018 5:03:53 PM")
    (tool "Eeschema 4.0.6")
    (sheet (number 1) (name /) (tstamps /)
      (title_block
        (title)
        (company)
        (rev)
        (date)
        (source "Decade Capacitor Switches.sch")
        (comment (number 1) (value ""))
        (comment (number 2) (value ""))
        (comment (number 3) (value ""))
        (comment (number 4) (value "")))))
  (components
    (comp (ref SW1)
      (value Rotary_Switch_12pos)
      (footprint myfootprint:Rotary_SW_noname)
      (libsource (lib mylib) (part Rotary_Switch_12pos))
      (sheetpath (names /) (tstamps /))
      (tstamp 5B3770AA))
    (comp (ref J3)
      (value CONN_02X09)
      (footprint Pin_Headers:Pin_Header_Straight_2x09_Pitch2.54mm)
      (libsource (lib conn) (part CONN_02X09))
      (sheetpath (names /) (tstamps /))
      (tstamp 5B377160))
    (comp (ref SW2)
      (value Rotary_Switch_12pos)
      (footprint myfootprint:Rotary_SW_noname)
      (libsource (lib mylib) (part Rotary_Switch_12pos))
      (sheetpath (names /) (tstamps /))
      (tstamp 5B37799A))
    (comp (ref J4)
      (value CONN_02X09)
      (footprint Pin_Headers:Pin_Header_Straight_2x09_Pitch2.54mm)
      (libsource (lib conn) (part CONN_02X09))
      (sheetpath (names /) (tstamps /))
      (tstamp 5B3779A0))
    (comp (ref SW3)
      (value Rotary_Switch_12pos)
      (footprint myfootprint:Rotary_SW_noname)
      (libsource (lib mylib) (part Rotary_Switch_12pos))
      (sheetpath (names /) (tstamps /))
      (tstamp 5B377AD1))
    (comp (ref J5)
      (value CONN_02X09)
      (footprint Pin_Headers:Pin_Header_Straight_2x09_Pitch2.54mm)
      (libsource (lib conn) (part CONN_02X09))
      (sheetpath (names /) (tstamps /))
      (tstamp 5B377AD7))
    (comp (ref J1)
      (value CONN_01X02)
      (footprint Pin_Headers:Pin_Header_Angled_1x02_Pitch2.54mm)
      (libsource (lib conn) (part CONN_01X02))
      (sheetpath (names /) (tstamps /))
      (tstamp 5B377D2E))
    (comp (ref SW4)
      (value Rotary_Switch_12pos)
      (footprint myfootprint:Rotary_SW_noname)
      (libsource (lib mylib) (part Rotary_Switch_12pos))
      (sheetpath (names /) (tstamps /))
      (tstamp 5B37985C))
    (comp (ref J6)
      (value CONN_02X09)
      (footprint Pin_Headers:Pin_Header_Straight_2x09_Pitch2.54mm)
      (libsource (lib conn) (part CONN_02X09))
      (sheetpath (names /) (tstamps /))
      (tstamp 5B379862))
    (comp (ref J2)
      (value CONN_01X02)
      (footprint Connectors_Terminal_Blocks:TerminalBlock_bornier-2_P5.08mm)
      (libsource (lib conn) (part CONN_01X02))
      (sheetpath (names /) (tstamps /))
      (tstamp 5B3DEDE1)))
  (libparts
    (libpart (lib conn) (part CONN_01X02)
      (description "Connector, single row, 01x02, pin header")
      (footprints
        (fp Pin_Header_Straight_1X*)
        (fp Pin_Header_Angled_1X*)
        (fp Socket_Strip_Straight_1X*)
        (fp Socket_Strip_Angled_1X*))
      (fields
        (field (name Reference) J)
        (field (name Value) CONN_01X02))
      (pins
        (pin (num 1) (name P1) (type passive))
        (pin (num 2) (name P2) (type passive))))
    (libpart (lib conn) (part CONN_02X09)
      (description "Connector, double row, 02x09, pin header")
      (footprints
        (fp Pin_Header_Straight_2X*)
        (fp Pin_Header_Angled_2X*)
        (fp Socket_Strip_Straight_2X*)
        (fp Socket_Strip_Angled_2X*))
      (fields
        (field (name Reference) J)
        (field (name Value) CONN_02X09))
      (pins
        (pin (num 1) (name P1) (type passive))
        (pin (num 2) (name P2) (type passive))
        (pin (num 3) (name P3) (type passive))
        (pin (num 4) (name P4) (type passive))
        (pin (num 5) (name P5) (type passive))
        (pin (num 6) (name P6) (type passive))
        (pin (num 7) (name P7) (type passive))
        (pin (num 8) (name P8) (type passive))
        (pin (num 9) (name P9) (type passive))
        (pin (num 10) (name P10) (type passive))
        (pin (num 11) (name P11) (type passive))
        (pin (num 12) (name P12) (type passive))
        (pin (num 13) (name P13) (type passive))
        (pin (num 14) (name P14) (type passive))
        (pin (num 15) (name P15) (type passive))
        (pin (num 16) (name P16) (type passive))
        (pin (num 17) (name P17) (type passive))
        (pin (num 18) (name P18) (type passive))))
    (libpart (lib mylib) (part Rotary_Switch_12pos)
      (fields
        (field (name Reference) SW)
        (field (name Value) Rotary_Switch_12pos))
      (pins
        (pin (num 1) (name 0) (type passive))
        (pin (num 2) (name 1) (type passive))
        (pin (num 3) (name 2) (type passive))
        (pin (num 4) (name 3) (type passive))
        (pin (num 5) (name 4) (type passive))
        (pin (num 6) (name 5) (type passive))
        (pin (num 7) (name 6) (type passive))
        (pin (num 8) (name 7) (type passive))
        (pin (num 9) (name 8) (type passive))
        (pin (num 10) (name 9) (type passive))
        (pin (num 11) (name 10) (type passive))
        (pin (num 12) (name 11) (type passive))
        (pin (num A) (name A) (type passive)))))
  (libraries
    (library (logical conn)
      (uri "C:\\Program Files\\KiCad\\share\\kicad\\library\\conn.lib"))
    (library (logical mylib)
      (uri "C:\\Users\\Dell\\Desktop\\Work\\Kicad\\V.1 LTC4020 Charger\\mylib\\mylib.lib")))
  (nets
    (net (code 1) (name /sw4-1)
      (node (ref J6) (pin 1))
      (node (ref SW4) (pin 2)))
    (net (code 2) (name "Net-(SW4-Pad12)")
      (node (ref SW4) (pin 12)))
    (net (code 3) (name "Net-(SW4-Pad11)")
      (node (ref SW4) (pin 11)))
    (net (code 4) (name /sw4-8)
      (node (ref J6) (pin 15))
      (node (ref SW4) (pin 9)))
    (net (code 5) (name "Net-(SW4-Pad1)")
      (node (ref SW4) (pin 1)))
    (net (code 6) (name /sw4-7)
      (node (ref SW4) (pin 8))
      (node (ref J6) (pin 13)))
    (net (code 7) (name /sw4-4)
      (node (ref J6) (pin 7))
      (node (ref SW4) (pin 5)))
    (net (code 8) (name /sw4-2)
      (node (ref J6) (pin 3))
      (node (ref SW4) (pin 3)))
    (net (code 9) (name /sw4-9)
      (node (ref SW4) (pin 10))
      (node (ref J6) (pin 17)))
    (net (code 10) (name /sw3-6)
      (node (ref J5) (pin 11))
      (node (ref SW3) (pin 7)))
    (net (code 11) (name /sw3-4)
      (node (ref J5) (pin 7))
      (node (ref SW3) (pin 5)))
    (net (code 12) (name /sw4-6)
      (node (ref J6) (pin 11))
      (node (ref SW4) (pin 7)))
    (net (code 13) (name /sw3-3)
      (node (ref SW3) (pin 4))
      (node (ref J5) (pin 5)))
    (net (code 14) (name /sw3-2)
      (node (ref SW3) (pin 3))
      (node (ref J5) (pin 3)))
    (net (code 15) (name /sw3-1)
      (node (ref SW3) (pin 2))
      (node (ref J5) (pin 1)))
    (net (code 16) (name /sw3-5)
      (node (ref J5) (pin 9))
      (node (ref SW3) (pin 6)))
    (net (code 17) (name Positive)
      (node (ref SW2) (pin A))
      (node (ref SW3) (pin A))
      (node (ref J2) (pin 1))
      (node (ref SW1) (pin A))
      (node (ref J1) (pin 1))
      (node (ref SW4) (pin A)))
    (net (code 18) (name Negative)
      (node (ref J5) (pin 4))
      (node (ref J5) (pin 6))
      (node (ref J5) (pin 8))
      (node (ref J4) (pin 8))
      (node (ref J5) (pin 2))
      (node (ref J4) (pin 12))
      (node (ref J4) (pin 18))
      (node (ref J4) (pin 16))
      (node (ref J4) (pin 14))
      (node (ref J4) (pin 2))
      (node (ref J4) (pin 4))
      (node (ref J4) (pin 10))
      (node (ref J4) (pin 6))
      (node (ref J3) (pin 16))
      (node (ref J3) (pin 14))
      (node (ref J3) (pin 12))
      (node (ref J3) (pin 18))
      (node (ref J5) (pin 10))
      (node (ref J5) (pin 12))
      (node (ref J5) (pin 14))
      (node (ref J3) (pin 10))
      (node (ref J3) (pin 8))
      (node (ref J3) (pin 6))
      (node (ref J3) (pin 4))
      (node (ref J3) (pin 2))
      (node (ref J1) (pin 2))
      (node (ref J6) (pin 2))
      (node (ref J5) (pin 16))
      (node (ref J5) (pin 18))
      (node (ref J6) (pin 4))
      (node (ref J6) (pin 6))
      (node (ref J6) (pin 8))
      (node (ref J6) (pin 18))
      (node (ref J6) (pin 16))
      (node (ref J6) (pin 14))
      (node (ref J6) (pin 12))
      (node (ref J6) (pin 10))
      (node (ref J2) (pin 2)))
    (net (code 20) (name /sw4-5)
      (node (ref J6) (pin 9))
      (node (ref SW4) (pin 6)))
    (net (code 21) (name /sw4-3)
      (node (ref J6) (pin 5))
      (node (ref SW4) (pin 4)))
    (net (code 22) (name /sw3-9)
      (node (ref J5) (pin 17))
      (node (ref SW3) (pin 10)))
    (net (code 23) (name /sw3-8)
      (node (ref J5) (pin 15))
      (node (ref SW3) (pin 9)))
    (net (code 24) (name /sw3-7)
      (node (ref J5) (pin 13))
      (node (ref SW3) (pin 8)))
    (net (code 25) (name /sw1-9)
      (node (ref SW1) (pin 10))
      (node (ref J3) (pin 17)))
    (net (code 26) (name /sw1-8)
      (node (ref SW1) (pin 9))
      (node (ref J3) (pin 15)))
    (net (code 27) (name /sw1-1)
      (node (ref J3) (pin 1))
      (node (ref SW1) (pin 2)))
    (net (code 28) (name "Net-(SW2-Pad12)")
      (node (ref SW2) (pin 12)))
    (net (code 29) (name "Net-(SW2-Pad11)")
      (node (ref SW2) (pin 11)))
    (net (code 30) (name /sw2-8)
      (node (ref J4) (pin 15))
      (node (ref SW2) (pin 9)))
    (net (code 31) (name /sw2-6)
      (node (ref J4) (pin 11))
      (node (ref SW2) (pin 7)))
    (net (code 32) (name /sw2-5)
      (node (ref SW2) (pin 6))
      (node (ref J4) (pin 9)))
    (net (code 33) (name /sw2-3)
      (node (ref J4) (pin 5))
      (node (ref SW2) (pin 4)))
    (net (code 34) (name "Net-(SW2-Pad1)")
      (node (ref SW2) (pin 1)))
    (net (code 35) (name "Net-(SW1-Pad11)")
      (node (ref SW1) (pin 11)))
    (net (code 36) (name "Net-(SW1-Pad12)")
      (node (ref SW1) (pin 12)))
    (net (code 37) (name /sw1-6)
      (node (ref SW1) (pin 7))
      (node (ref J3) (pin 11)))
    (net (code 38) (name /sw1-5)
      (node (ref J3) (pin 9))
      (node (ref SW1) (pin 6)))
    (net (code 39) (name /sw1-3)
      (node (ref SW1) (pin 4))
      (node (ref J3) (pin 5)))
    (net (code 40) (name /sw1-2)
      (node (ref J3) (pin 3))
      (node (ref SW1) (pin 3)))
    (net (code 41) (name /sw1-4)
      (node (ref J3) (pin 7))
      (node (ref SW1) (pin 5)))
    (net (code 42) (name /sw1-7)
      (node (ref J3) (pin 13))
      (node (ref SW1) (pin 8)))
    (net (code 43) (name /sw2-1)
      (node (ref J4) (pin 1))
      (node (ref SW2) (pin 2)))
    (net (code 44) (name "Net-(SW3-Pad1)")
      (node (ref SW3) (pin 1)))
    (net (code 45) (name "Net-(SW3-Pad12)")
      (node (ref SW3) (pin 12)))
    (net (code 46) (name "Net-(SW3-Pad11)")
      (node (ref SW3) (pin 11)))
    (net (code 47) (name /sw2-4)
      (node (ref J4) (pin 7))
      (node (ref SW2) (pin 5)))
    (net (code 48) (name /sw2-2)
      (node (ref SW2) (pin 3))
      (node (ref J4) (pin 3)))
    (net (code 49) (name /sw2-9)
      (node (ref SW2) (pin 10))
      (node (ref J4) (pin 17)))
    (net (code 50) (name /sw2-7)
      (node (ref SW2) (pin 8))
      (node (ref J4) (pin 13)))
    (net (code 51) (name "Net-(SW1-Pad1)")
      (node (ref SW1) (pin 1)))))