G04 #@! TF.FileFunction,Copper,L1,Top,Signal*
%FSLAX46Y46*%
G04 Gerber Fmt 4.6, Leading zero omitted, Abs format (unit mm)*
G04 Created by KiCad (PCBNEW 4.0.6) date 07/09/18 16:30:01*
%MOMM*%
%LPD*%
G01*
G04 APERTURE LIST*
%ADD10C,0.100000*%
%ADD11R,0.750000X0.800000*%
%ADD12R,1.700000X1.700000*%
%ADD13O,1.700000X1.700000*%
%ADD14C,0.600000*%
%ADD15C,0.254000*%
G04 APERTURE END LIST*
D10*
D11*
X2100000Y-14500000D03*
X2100000Y-16000000D03*
X6100000Y-14500000D03*
X6100000Y-16000000D03*
X8600000Y-14500000D03*
X8600000Y-16000000D03*
X17600000Y-14500000D03*
X17600000Y-16000000D03*
X20100000Y-14500000D03*
X20100000Y-16000000D03*
X22600000Y-14500000D03*
X22600000Y-16000000D03*
X3000000Y-19900000D03*
X3000000Y-21400000D03*
X5500000Y-19900000D03*
X5500000Y-21400000D03*
X8000000Y-19900000D03*
X8000000Y-21400000D03*
X10500000Y-19900000D03*
X10500000Y-21400000D03*
X14700000Y-19900000D03*
X14700000Y-21400000D03*
X16700000Y-19900000D03*
X16700000Y-21400000D03*
X18700000Y-19900000D03*
X18700000Y-21400000D03*
X20700000Y-19900000D03*
X20700000Y-21400000D03*
X22700000Y-19900000D03*
X22700000Y-21400000D03*
D12*
X2340000Y-27490000D03*
D13*
X2340000Y-24950000D03*
X4880000Y-27490000D03*
X4880000Y-24950000D03*
X7420000Y-27490000D03*
X7420000Y-24950000D03*
X9960000Y-27490000D03*
X9960000Y-24950000D03*
X12500000Y-27490000D03*
X12500000Y-24950000D03*
X15040000Y-27490000D03*
X15040000Y-24950000D03*
X17580000Y-27490000D03*
X17580000Y-24950000D03*
X20120000Y-27490000D03*
X20120000Y-24950000D03*
X22660000Y-27490000D03*
X22660000Y-24950000D03*
D14*
X6070600Y-22580600D03*
X5994400Y-18821400D03*
X1270000Y-18364200D03*
X15722600Y-21082000D03*
X11811000Y-21082000D03*
X7874000Y-22860000D03*
X12827000Y-22098000D03*
X6731000Y-20622000D03*
X6731000Y-19174200D03*
D15*
X457200Y-15513800D02*
X457200Y-26711200D01*
X457200Y-26711200D02*
X1236000Y-27490000D01*
X1236000Y-27490000D02*
X2340000Y-27490000D01*
X2100000Y-14500000D02*
X1471000Y-14500000D01*
X1471000Y-14500000D02*
X457200Y-15513800D01*
X5500000Y-21400000D02*
X5500000Y-22010000D01*
X5500000Y-22010000D02*
X6070600Y-22580600D01*
X6070600Y-22580600D02*
X4880000Y-23771200D01*
X4880000Y-23771200D02*
X4880000Y-24950000D01*
X6100000Y-16000000D02*
X6100000Y-18715800D01*
X6100000Y-18715800D02*
X5994400Y-18821400D01*
X6100000Y-16000000D02*
X8600000Y-16000000D01*
X2100000Y-16000000D02*
X2100000Y-17534200D01*
X2100000Y-17534200D02*
X1270000Y-18364200D01*
X17600000Y-16000000D02*
X20100000Y-16000000D01*
X22600000Y-16000000D02*
X20100000Y-16000000D01*
X23825200Y-20903800D02*
X23825200Y-17879200D01*
X23825200Y-17879200D02*
X22600000Y-16654000D01*
X22600000Y-16654000D02*
X22600000Y-16000000D01*
X22700000Y-21400000D02*
X23329000Y-21400000D01*
X23329000Y-21400000D02*
X23825200Y-20903800D01*
X22700000Y-21400000D02*
X22700000Y-24910000D01*
X22700000Y-24910000D02*
X22660000Y-24950000D01*
X22700000Y-21400000D02*
X20700000Y-21400000D01*
X18700000Y-21400000D02*
X20700000Y-21400000D01*
X16700000Y-21400000D02*
X18700000Y-21400000D01*
X15722600Y-21082000D02*
X16382000Y-21082000D01*
X16382000Y-21082000D02*
X16700000Y-21400000D01*
X15722600Y-21082000D02*
X15018000Y-21082000D01*
X15018000Y-21082000D02*
X14700000Y-21400000D01*
X10500000Y-21400000D02*
X11493000Y-21400000D01*
X11493000Y-21400000D02*
X11811000Y-21082000D01*
X10500000Y-21400000D02*
X8000000Y-21400000D01*
X3000000Y-21400000D02*
X5500000Y-21400000D01*
X7874000Y-22860000D02*
X7874000Y-24496000D01*
X7874000Y-24496000D02*
X7420000Y-24950000D01*
X12827000Y-22098000D02*
X12500000Y-22425000D01*
X12500000Y-22425000D02*
X12500000Y-24950000D01*
X20120000Y-24950000D02*
X21322081Y-24950000D01*
X21322081Y-24950000D02*
X22660000Y-24950000D01*
X17580000Y-24950000D02*
X18782081Y-24950000D01*
X18782081Y-24950000D02*
X20120000Y-24950000D01*
X15040000Y-24950000D02*
X16242081Y-24950000D01*
X16242081Y-24950000D02*
X17580000Y-24950000D01*
X3606800Y-26216800D02*
X4030001Y-26640001D01*
X3606800Y-24203400D02*
X3606800Y-26216800D01*
X911211Y-21507811D02*
X3606800Y-24203400D01*
X4030001Y-26640001D02*
X4880000Y-27490000D01*
X911211Y-19713789D02*
X911211Y-21507811D01*
X6100000Y-14525000D02*
X911211Y-19713789D01*
X6100000Y-14500000D02*
X6100000Y-14525000D01*
X8600000Y-14500000D02*
X6100000Y-14500000D01*
X6146800Y-26216800D02*
X7420000Y-27490000D01*
X6146800Y-24152600D02*
X6146800Y-26216800D01*
X6731000Y-23568400D02*
X6146800Y-24152600D01*
X6731000Y-20622000D02*
X6731000Y-23568400D01*
X12906400Y-18564600D02*
X7340600Y-18564600D01*
X7340600Y-18564600D02*
X6731000Y-19174200D01*
X17600000Y-14500000D02*
X16971000Y-14500000D01*
X16971000Y-14500000D02*
X12906400Y-18564600D01*
X20100000Y-14500000D02*
X17600000Y-14500000D01*
X22600000Y-14500000D02*
X20100000Y-14500000D01*
X10809999Y-26640001D02*
X9960000Y-27490000D01*
X11226800Y-26223200D02*
X10809999Y-26640001D01*
X11226800Y-22594164D02*
X11226800Y-26223200D01*
X12438002Y-20781038D02*
X12438002Y-21382962D01*
X12438002Y-21382962D02*
X11226800Y-22594164D01*
X10500000Y-19900000D02*
X11556964Y-19900000D01*
X11556964Y-19900000D02*
X12438002Y-20781038D01*
X5500000Y-19900000D02*
X8000000Y-19900000D01*
X3000000Y-19900000D02*
X5500000Y-19900000D01*
X10500000Y-19900000D02*
X8000000Y-19900000D01*
X13766800Y-20858200D02*
X13766800Y-26223200D01*
X13766800Y-26223200D02*
X12500000Y-27490000D01*
X14700000Y-19900000D02*
X14700000Y-19925000D01*
X14700000Y-19925000D02*
X13766800Y-20858200D01*
X16700000Y-19900000D02*
X14700000Y-19900000D01*
X18700000Y-19900000D02*
X16700000Y-19900000D01*
X20700000Y-19900000D02*
X18700000Y-19900000D01*
X22700000Y-19900000D02*
X20700000Y-19900000D01*
M02*
