M48
;DRILL file {KiCad 4.0.6} date 07/09/18 16:31:27
;FORMAT={-:-/ absolute / inch / decimal}
FMAT,2
INCH,TZ
T1C0.039
T2C0.060
T3C0.079
T4C0.083
%
G90
G05
M72
T1
X0.348Y-0.1362
X0.348Y-0.2362
X0.448Y-0.1362
X0.448Y-0.2362
X0.548Y-0.1362
X0.548Y-0.2362
X0.648Y-0.1362
X0.648Y-0.2362
X0.748Y-0.1362
X0.748Y-0.2362
X0.848Y-0.1362
X0.848Y-0.2362
X0.948Y-0.1362
X0.948Y-0.2362
X1.048Y-0.1362
X1.048Y-0.2362
X1.148Y-0.1362
X1.148Y-0.2362
X1.726Y-0.1362
X1.726Y-0.2362
X1.826Y-0.1362
X1.826Y-0.2362
X1.926Y-0.1362
X1.926Y-0.2362
X2.026Y-0.1362
X2.026Y-0.2362
X2.126Y-0.1362
X2.126Y-0.2362
X2.226Y-0.1362
X2.226Y-0.2362
X2.326Y-0.1362
X2.326Y-0.2362
X2.426Y-0.1362
X2.426Y-0.2362
X2.526Y-0.1362
X2.526Y-0.2362
X3.1039Y-0.1362
X3.1039Y-0.2362
X3.2039Y-0.1362
X3.2039Y-0.2362
X3.3039Y-0.1362
X3.3039Y-0.2362
X3.4039Y-0.1362
X3.4039Y-0.2362
X3.5039Y-0.1362
X3.5039Y-0.2362
X3.6039Y-0.1362
X3.6039Y-0.2362
X3.7039Y-0.1362
X3.7039Y-0.2362
X3.8039Y-0.1362
X3.8039Y-0.2362
X3.9039Y-0.1362
X3.9039Y-0.2362
X4.4819Y-0.1362
X4.4819Y-0.2362
X4.5819Y-0.1362
X4.5819Y-0.2362
X4.6819Y-0.1362
X4.6819Y-0.2362
X4.7819Y-0.1362
X4.7819Y-0.2362
X4.8819Y-0.1362
X4.8819Y-0.2362
X4.9819Y-0.1362
X4.9819Y-0.2362
X5.0819Y-0.1362
X5.0819Y-0.2362
X5.1819Y-0.1362
X5.1819Y-0.2362
X5.2819Y-0.1362
X5.2819Y-0.2362
X5.748Y-0.4331
X5.848Y-0.4331
T2
X5.8268Y-0.748
X5.8268Y-0.948
T3
X5.8268Y-1.2598
X5.8268Y-1.5354
T4
X0.3671Y-0.8819
X0.3671Y-1.0866
X0.4695Y-0.7057
X0.4695Y-1.2628
X0.6457Y-0.6033
X0.6457Y-1.3652
X0.748Y-1.1969
X0.8504Y-0.6033
X0.8504Y-1.3652
X1.0266Y-0.7057
X1.0266Y-1.2628
X1.1289Y-0.8819
X1.1289Y-1.0866
X1.7451Y-0.8819
X1.7451Y-1.0866
X1.8474Y-0.7057
X1.8474Y-1.2628
X2.0236Y-0.6033
X2.0236Y-1.3652
X2.126Y-1.1969
X2.2283Y-0.6033
X2.2283Y-1.3652
X2.4045Y-0.7057
X2.4045Y-1.2628
X2.5069Y-0.8819
X2.5069Y-1.0866
X3.123Y-0.8819
X3.123Y-1.0866
X3.2254Y-0.7057
X3.2254Y-1.2628
X3.4016Y-0.6033
X3.4016Y-1.3652
X3.5039Y-1.1969
X3.6063Y-0.6033
X3.6063Y-1.3652
X3.7825Y-0.7057
X3.7825Y-1.2628
X3.8848Y-0.8819
X3.8848Y-1.0866
X4.501Y-0.8819
X4.501Y-1.0866
X4.6033Y-0.7057
X4.6033Y-1.2628
X4.7795Y-0.6033
X4.7795Y-1.3652
X4.8819Y-1.1969
X4.9843Y-0.6033
X4.9843Y-1.3652
X5.1604Y-0.7057
X5.1604Y-1.2628
X5.2628Y-0.8819
X5.2628Y-1.0866
T0
M30
