G04 #@! TF.FileFunction,Soldermask,Bot*
%FSLAX46Y46*%
G04 Gerber Fmt 4.6, Leading zero omitted, Abs format (unit mm)*
G04 Created by KiCad (PCBNEW 4.0.6) date 07/09/18 16:31:25*
%MOMM*%
%LPD*%
G01*
G04 APERTURE LIST*
%ADD10C,0.100000*%
%ADD11R,2.100000X2.100000*%
%ADD12O,2.100000X2.100000*%
%ADD13C,3.400000*%
%ADD14R,3.400000X3.400000*%
%ADD15C,4.900880*%
G04 APERTURE END LIST*
D10*
D11*
X8840000Y-6000000D03*
D12*
X8840000Y-3460000D03*
X11380000Y-6000000D03*
X11380000Y-3460000D03*
X13920000Y-6000000D03*
X13920000Y-3460000D03*
X16460000Y-6000000D03*
X16460000Y-3460000D03*
X19000000Y-6000000D03*
X19000000Y-3460000D03*
X21540000Y-6000000D03*
X21540000Y-3460000D03*
X24080000Y-6000000D03*
X24080000Y-3460000D03*
X26620000Y-6000000D03*
X26620000Y-3460000D03*
X29160000Y-6000000D03*
X29160000Y-3460000D03*
D13*
X19000000Y-30400000D03*
X21600000Y-34675000D03*
X16400000Y-34675000D03*
X11925000Y-32075000D03*
X9325000Y-27600000D03*
X9325000Y-22400000D03*
X11925000Y-17925000D03*
X16400000Y-15325000D03*
X21600000Y-15325000D03*
X26075000Y-17925000D03*
X28675000Y-22400000D03*
X28675000Y-27600000D03*
X26075000Y-32075000D03*
X54000000Y-30400000D03*
X56600000Y-34675000D03*
X51400000Y-34675000D03*
X46925000Y-32075000D03*
X44325000Y-27600000D03*
X44325000Y-22400000D03*
X46925000Y-17925000D03*
X51400000Y-15325000D03*
X56600000Y-15325000D03*
X61075000Y-17925000D03*
X63675000Y-22400000D03*
X63675000Y-27600000D03*
X61075000Y-32075000D03*
X89000000Y-30400000D03*
X91600000Y-34675000D03*
X86400000Y-34675000D03*
X81925000Y-32075000D03*
X79325000Y-27600000D03*
X79325000Y-22400000D03*
X81925000Y-17925000D03*
X86400000Y-15325000D03*
X91600000Y-15325000D03*
X96075000Y-17925000D03*
X98675000Y-22400000D03*
X98675000Y-27600000D03*
X96075000Y-32075000D03*
X124000000Y-30400000D03*
X126600000Y-34675000D03*
X121400000Y-34675000D03*
X116925000Y-32075000D03*
X114325000Y-27600000D03*
X114325000Y-22400000D03*
X116925000Y-17925000D03*
X121400000Y-15325000D03*
X126600000Y-15325000D03*
X131075000Y-17925000D03*
X133675000Y-22400000D03*
X133675000Y-27600000D03*
X131075000Y-32075000D03*
D11*
X146000000Y-11000000D03*
D12*
X148540000Y-11000000D03*
D14*
X148000000Y-19000000D03*
D13*
X148000000Y-24080000D03*
D15*
X148000000Y-32000000D03*
X148000000Y-39000000D03*
D11*
X43840000Y-6000000D03*
D12*
X43840000Y-3460000D03*
X46380000Y-6000000D03*
X46380000Y-3460000D03*
X48920000Y-6000000D03*
X48920000Y-3460000D03*
X51460000Y-6000000D03*
X51460000Y-3460000D03*
X54000000Y-6000000D03*
X54000000Y-3460000D03*
X56540000Y-6000000D03*
X56540000Y-3460000D03*
X59080000Y-6000000D03*
X59080000Y-3460000D03*
X61620000Y-6000000D03*
X61620000Y-3460000D03*
X64160000Y-6000000D03*
X64160000Y-3460000D03*
D11*
X78840000Y-6000000D03*
D12*
X78840000Y-3460000D03*
X81380000Y-6000000D03*
X81380000Y-3460000D03*
X83920000Y-6000000D03*
X83920000Y-3460000D03*
X86460000Y-6000000D03*
X86460000Y-3460000D03*
X89000000Y-6000000D03*
X89000000Y-3460000D03*
X91540000Y-6000000D03*
X91540000Y-3460000D03*
X94080000Y-6000000D03*
X94080000Y-3460000D03*
X96620000Y-6000000D03*
X96620000Y-3460000D03*
X99160000Y-6000000D03*
X99160000Y-3460000D03*
D11*
X113840000Y-6000000D03*
D12*
X113840000Y-3460000D03*
X116380000Y-6000000D03*
X116380000Y-3460000D03*
X118920000Y-6000000D03*
X118920000Y-3460000D03*
X121460000Y-6000000D03*
X121460000Y-3460000D03*
X124000000Y-6000000D03*
X124000000Y-3460000D03*
X126540000Y-6000000D03*
X126540000Y-3460000D03*
X129080000Y-6000000D03*
X129080000Y-3460000D03*
X131620000Y-6000000D03*
X131620000Y-3460000D03*
X134160000Y-6000000D03*
X134160000Y-3460000D03*
M02*
