EESchema Schematic File Version 2
LIBS:power
LIBS:device
LIBS:transistors
LIBS:conn
LIBS:linear
LIBS:regul
LIBS:74xx
LIBS:cmos4000
LIBS:adc-dac
LIBS:memory
LIBS:xilinx
LIBS:microcontrollers
LIBS:dsp
LIBS:microchip
LIBS:analog_switches
LIBS:motorola
LIBS:texas
LIBS:intel
LIBS:audio
LIBS:interface
LIBS:digital-audio
LIBS:philips
LIBS:display
LIBS:cypress
LIBS:siliconi
LIBS:opto
LIBS:atmel
LIBS:contrib
LIBS:valves
LIBS:x1 Decade Capacitors-cache
EELAYER 25 0
EELAYER END
$Descr A4 11693 8268
encoding utf-8
Sheet 1 1
Title ""
Date ""
Rev ""
Comp ""
Comment1 ""
Comment2 ""
Comment3 ""
Comment4 ""
$EndDescr
$Comp
L C C1
U 1 1 5B3AEB7A
P 3000 3200
F 0 "C1" H 3025 3300 50  0000 L CNN
F 1 "1uF" H 3025 3100 50  0000 L CNN
F 2 "Capacitors_SMD:C_0603" H 3038 3050 50  0001 C CNN
F 3 "" H 3000 3200 50  0001 C CNN
F 4 "GRM188R61H105KAALD" H 3000 3200 60  0001 C CNN "partno"
	1    3000 3200
	0    1    1    0   
$EndComp
$Comp
L CONN_02X09 J1
U 1 1 5B3AEB7B
P 5300 2050
F 0 "J1" H 5300 2550 50  0000 C CNN
F 1 "CONN_02X09" V 5300 2050 50  0000 C CNN
F 2 "Pin_Headers:Pin_Header_Straight_2x09_Pitch2.54mm" H 5300 850 50  0001 C CNN
F 3 "" H 5300 850 50  0001 C CNN
F 4 "PHDS80G11/RH" H 5300 2050 60  0001 C CNN "partno"
	1    5300 2050
	0    -1   -1   0   
$EndComp
Text Label 5900 1750 0    60   ~ 0
Negative
Text Label 4500 2300 0    60   ~ 0
1
Text Label 4700 2400 0    60   ~ 0
2
Text Label 4900 2500 0    60   ~ 0
3
Text Label 5050 2600 0    60   ~ 0
4
Text Label 5300 2600 0    60   ~ 0
5
Text Label 5400 2600 0    60   ~ 0
6
Text Label 5500 2600 0    60   ~ 0
7
Text Label 5900 2400 0    60   ~ 0
8
Text Label 6100 2300 0    60   ~ 0
9
Wire Wire Line
	2850 2300 4900 2300
Wire Wire Line
	3350 2400 5000 2400
Wire Wire Line
	5000 2400 5000 2300
Wire Wire Line
	3850 2500 5100 2500
Wire Wire Line
	5100 2500 5100 2300
Wire Wire Line
	4350 2600 5200 2600
Wire Wire Line
	5200 2600 5200 2300
Wire Wire Line
	5300 2300 5300 2700
Wire Wire Line
	5400 2300 5400 2800
Wire Wire Line
	5500 2300 5500 2700
Wire Wire Line
	5600 2300 5600 2400
Wire Wire Line
	4900 1750 4900 1800
Wire Wire Line
	5000 1800 5000 1750
Connection ~ 5000 1750
Wire Wire Line
	5100 1800 5100 1750
Connection ~ 5100 1750
Wire Wire Line
	5200 1800 5200 1750
Connection ~ 5200 1750
Wire Wire Line
	5300 1800 5300 1750
Connection ~ 5300 1750
Wire Wire Line
	5400 1800 5400 1750
Connection ~ 5400 1750
Wire Wire Line
	5500 1800 5500 1750
Connection ~ 5500 1750
Wire Wire Line
	5600 1800 5600 1750
Connection ~ 5600 1750
Wire Wire Line
	5700 1800 5700 1750
Connection ~ 5700 1750
Wire Wire Line
	2850 2300 2850 3200
Wire Wire Line
	3350 2400 3350 3400
Connection ~ 3350 3200
Wire Wire Line
	3850 2500 3850 3600
Connection ~ 3850 3200
Connection ~ 3850 3400
Wire Wire Line
	4350 2600 4350 3800
Connection ~ 4350 3200
Connection ~ 4350 3400
Connection ~ 4350 3600
Wire Wire Line
	5300 2700 4850 2700
Wire Wire Line
	4850 2700 4850 4000
Connection ~ 4850 3200
Connection ~ 4850 3400
Connection ~ 4850 3600
Connection ~ 4850 3800
Wire Wire Line
	5350 2800 5350 4200
Connection ~ 5350 4000
Connection ~ 5350 3800
Connection ~ 5350 3600
Connection ~ 5350 3400
Wire Wire Line
	5400 2800 5350 2800
Connection ~ 5350 3200
Wire Wire Line
	5500 2700 5850 2700
Wire Wire Line
	5850 2700 5850 4400
Connection ~ 5850 3200
Connection ~ 5850 3400
Connection ~ 5850 3600
Connection ~ 5850 3800
Connection ~ 5850 4000
Connection ~ 5850 4200
Wire Wire Line
	6350 2400 6350 4600
Connection ~ 6350 4400
Connection ~ 6350 4200
Connection ~ 6350 4000
Connection ~ 6350 3800
Connection ~ 6350 3600
Connection ~ 6350 3400
Wire Wire Line
	5600 2400 6350 2400
Connection ~ 6350 3200
Wire Wire Line
	6850 2300 6850 4800
Connection ~ 6850 4600
Connection ~ 6850 4400
Connection ~ 6850 4200
Connection ~ 6850 4000
Connection ~ 6850 3800
Connection ~ 6850 3600
Connection ~ 6850 3400
Wire Wire Line
	6850 2300 5700 2300
Connection ~ 6850 3200
Wire Wire Line
	7150 1750 7150 5000
Connection ~ 7150 4600
Connection ~ 7150 4400
Connection ~ 7150 4200
Connection ~ 7150 4000
Connection ~ 7150 3800
Connection ~ 7150 3600
Connection ~ 7150 3400
Wire Wire Line
	6650 3200 6650 5000
Connection ~ 6650 3400
Connection ~ 6650 3600
Connection ~ 6650 3800
Connection ~ 6650 4000
Connection ~ 6650 4200
Connection ~ 6650 4400
Wire Wire Line
	6150 3200 6150 5000
Connection ~ 6150 3400
Connection ~ 6150 3600
Connection ~ 6150 3800
Connection ~ 6150 4000
Connection ~ 6150 4200
Wire Wire Line
	5650 3200 5650 5000
Connection ~ 5650 3400
Connection ~ 5650 3600
Connection ~ 5650 3800
Connection ~ 5650 4000
Wire Wire Line
	5150 3200 5150 5000
Connection ~ 5150 3400
Connection ~ 5150 3600
Connection ~ 5150 3800
Wire Wire Line
	4650 3200 4650 5000
Connection ~ 4650 3400
Connection ~ 4650 3600
Wire Wire Line
	4150 3200 4150 5000
Connection ~ 4150 3400
Wire Wire Line
	3650 3200 3650 5000
Wire Wire Line
	3150 3200 3150 5000
Wire Wire Line
	3150 5000 7150 5000
Connection ~ 7150 4800
Connection ~ 6650 5000
Connection ~ 6650 4600
Connection ~ 6150 5000
Connection ~ 6150 4400
Connection ~ 5650 5000
Connection ~ 5650 4200
Connection ~ 5150 5000
Connection ~ 5150 4000
Connection ~ 4650 5000
Connection ~ 4650 3800
Connection ~ 4150 5000
Connection ~ 4150 3600
Connection ~ 3650 5000
Connection ~ 3650 3400
Wire Wire Line
	7150 1750 4900 1750
Connection ~ 7150 3200
$Comp
L C C2
U 1 1 5B3AFB30
P 3500 3200
F 0 "C2" H 3525 3300 50  0000 L CNN
F 1 "1uF" H 3525 3100 50  0000 L CNN
F 2 "Capacitors_SMD:C_0603" H 3538 3050 50  0001 C CNN
F 3 "" H 3500 3200 50  0001 C CNN
F 4 "GRM188R61H105KAALD" H 3500 3200 60  0001 C CNN "partno"
	1    3500 3200
	0    1    1    0   
$EndComp
$Comp
L C C3
U 1 1 5B3AFB68
P 3500 3400
F 0 "C3" H 3525 3500 50  0000 L CNN
F 1 "1uF" H 3525 3300 50  0000 L CNN
F 2 "Capacitors_SMD:C_0603" H 3538 3250 50  0001 C CNN
F 3 "" H 3500 3400 50  0001 C CNN
F 4 "GRM188R61H105KAALD" H 3500 3400 60  0001 C CNN "partno"
	1    3500 3400
	0    1    1    0   
$EndComp
$Comp
L C C4
U 1 1 5B3AFB8A
P 4000 3200
F 0 "C4" H 4025 3300 50  0000 L CNN
F 1 "1uF" H 4025 3100 50  0000 L CNN
F 2 "Capacitors_SMD:C_0603" H 4038 3050 50  0001 C CNN
F 3 "" H 4000 3200 50  0001 C CNN
F 4 "GRM188R61H105KAALD" H 4000 3200 60  0001 C CNN "partno"
	1    4000 3200
	0    1    1    0   
$EndComp
$Comp
L C C5
U 1 1 5B3AFBC1
P 4000 3400
F 0 "C5" H 4025 3500 50  0000 L CNN
F 1 "1uF" H 4025 3300 50  0000 L CNN
F 2 "Capacitors_SMD:C_0603" H 4038 3250 50  0001 C CNN
F 3 "" H 4000 3400 50  0001 C CNN
F 4 "GRM188R61H105KAALD" H 4000 3400 60  0001 C CNN "partno"
	1    4000 3400
	0    1    1    0   
$EndComp
$Comp
L C C6
U 1 1 5B3AFBE9
P 4000 3600
F 0 "C6" H 4025 3700 50  0000 L CNN
F 1 "1uF" H 4025 3500 50  0000 L CNN
F 2 "Capacitors_SMD:C_0603" H 4038 3450 50  0001 C CNN
F 3 "" H 4000 3600 50  0001 C CNN
F 4 "GRM188R61H105KAALD" H 4000 3600 60  0001 C CNN "partno"
	1    4000 3600
	0    1    1    0   
$EndComp
$Comp
L C C7
U 1 1 5B3AFC6D
P 4500 3200
F 0 "C7" H 4525 3300 50  0000 L CNN
F 1 "1uF" H 4525 3100 50  0000 L CNN
F 2 "Capacitors_SMD:C_0603" H 4538 3050 50  0001 C CNN
F 3 "" H 4500 3200 50  0001 C CNN
F 4 "GRM188R61H105KAALD" H 4500 3200 60  0001 C CNN "partno"
	1    4500 3200
	0    1    1    0   
$EndComp
$Comp
L C C8
U 1 1 5B3AFC74
P 4500 3400
F 0 "C8" H 4525 3500 50  0000 L CNN
F 1 "1uF" H 4525 3300 50  0000 L CNN
F 2 "Capacitors_SMD:C_0603" H 4538 3250 50  0001 C CNN
F 3 "" H 4500 3400 50  0001 C CNN
F 4 "GRM188R61H105KAALD" H 4500 3400 60  0001 C CNN "partno"
	1    4500 3400
	0    1    1    0   
$EndComp
$Comp
L C C9
U 1 1 5B3AFC7B
P 4500 3600
F 0 "C9" H 4525 3700 50  0000 L CNN
F 1 "1uF" H 4525 3500 50  0000 L CNN
F 2 "Capacitors_SMD:C_0603" H 4538 3450 50  0001 C CNN
F 3 "" H 4500 3600 50  0001 C CNN
F 4 "GRM188R61H105KAALD" H 4500 3600 60  0001 C CNN "partno"
	1    4500 3600
	0    1    1    0   
$EndComp
$Comp
L C C10
U 1 1 5B3AFC96
P 4500 3800
F 0 "C10" H 4525 3900 50  0000 L CNN
F 1 "1uF" H 4525 3700 50  0000 L CNN
F 2 "Capacitors_SMD:C_0603" H 4538 3650 50  0001 C CNN
F 3 "" H 4500 3800 50  0001 C CNN
F 4 "GRM188R61H105KAALD" H 4500 3800 60  0001 C CNN "partno"
	1    4500 3800
	0    1    1    0   
$EndComp
$Comp
L C C11
U 1 1 5B3AFD0F
P 5000 3200
F 0 "C11" H 5025 3300 50  0000 L CNN
F 1 "1uF" H 5025 3100 50  0000 L CNN
F 2 "Capacitors_SMD:C_0603" H 5038 3050 50  0001 C CNN
F 3 "" H 5000 3200 50  0001 C CNN
F 4 "GRM188R61H105KAALD" H 5000 3200 60  0001 C CNN "partno"
	1    5000 3200
	0    1    1    0   
$EndComp
$Comp
L C C12
U 1 1 5B3AFD16
P 5000 3400
F 0 "C12" H 5025 3500 50  0000 L CNN
F 1 "1uF" H 5025 3300 50  0000 L CNN
F 2 "Capacitors_SMD:C_0603" H 5038 3250 50  0001 C CNN
F 3 "" H 5000 3400 50  0001 C CNN
F 4 "GRM188R61H105KAALD" H 5000 3400 60  0001 C CNN "partno"
	1    5000 3400
	0    1    1    0   
$EndComp
$Comp
L C C13
U 1 1 5B3AFD1D
P 5000 3600
F 0 "C13" H 5025 3700 50  0000 L CNN
F 1 "1uF" H 5025 3500 50  0000 L CNN
F 2 "Capacitors_SMD:C_0603" H 5038 3450 50  0001 C CNN
F 3 "" H 5000 3600 50  0001 C CNN
F 4 "GRM188R61H105KAALD" H 5000 3600 60  0001 C CNN "partno"
	1    5000 3600
	0    1    1    0   
$EndComp
$Comp
L C C14
U 1 1 5B3AFD24
P 5000 3800
F 0 "C14" H 5025 3900 50  0000 L CNN
F 1 "1uF" H 5025 3700 50  0000 L CNN
F 2 "Capacitors_SMD:C_0603" H 5038 3650 50  0001 C CNN
F 3 "" H 5000 3800 50  0001 C CNN
F 4 "GRM188R61H105KAALD" H 5000 3800 60  0001 C CNN "partno"
	1    5000 3800
	0    1    1    0   
$EndComp
$Comp
L C C15
U 1 1 5B3AFD49
P 5000 4000
F 0 "C15" H 5025 4100 50  0000 L CNN
F 1 "1uF" H 5025 3900 50  0000 L CNN
F 2 "Capacitors_SMD:C_0603" H 5038 3850 50  0001 C CNN
F 3 "" H 5000 4000 50  0001 C CNN
F 4 "GRM188R61H105KAALD" H 5000 4000 60  0001 C CNN "partno"
	1    5000 4000
	0    1    1    0   
$EndComp
$Comp
L C C16
U 1 1 5B3AFDF2
P 5500 3200
F 0 "C16" H 5525 3300 50  0000 L CNN
F 1 "1uF" H 5525 3100 50  0000 L CNN
F 2 "Capacitors_SMD:C_0603" H 5538 3050 50  0001 C CNN
F 3 "" H 5500 3200 50  0001 C CNN
F 4 "GRM188R61H105KAALD" H 5500 3200 60  0001 C CNN "partno"
	1    5500 3200
	0    1    1    0   
$EndComp
$Comp
L C C17
U 1 1 5B3AFDF9
P 5500 3400
F 0 "C17" H 5525 3500 50  0000 L CNN
F 1 "1uF" H 5525 3300 50  0000 L CNN
F 2 "Capacitors_SMD:C_0603" H 5538 3250 50  0001 C CNN
F 3 "" H 5500 3400 50  0001 C CNN
F 4 "GRM188R61H105KAALD" H 5500 3400 60  0001 C CNN "partno"
	1    5500 3400
	0    1    1    0   
$EndComp
$Comp
L C C18
U 1 1 5B3AFE00
P 5500 3600
F 0 "C18" H 5525 3700 50  0000 L CNN
F 1 "1uF" H 5525 3500 50  0000 L CNN
F 2 "Capacitors_SMD:C_0603" H 5538 3450 50  0001 C CNN
F 3 "" H 5500 3600 50  0001 C CNN
F 4 "GRM188R61H105KAALD" H 5500 3600 60  0001 C CNN "partno"
	1    5500 3600
	0    1    1    0   
$EndComp
$Comp
L C C19
U 1 1 5B3AFE07
P 5500 3800
F 0 "C19" H 5525 3900 50  0000 L CNN
F 1 "1uF" H 5525 3700 50  0000 L CNN
F 2 "Capacitors_SMD:C_0603" H 5538 3650 50  0001 C CNN
F 3 "" H 5500 3800 50  0001 C CNN
F 4 "GRM188R61H105KAALD" H 5500 3800 60  0001 C CNN "partno"
	1    5500 3800
	0    1    1    0   
$EndComp
$Comp
L C C20
U 1 1 5B3AFE0E
P 5500 4000
F 0 "C20" H 5525 4100 50  0000 L CNN
F 1 "1uF" H 5525 3900 50  0000 L CNN
F 2 "Capacitors_SMD:C_0603" H 5538 3850 50  0001 C CNN
F 3 "" H 5500 4000 50  0001 C CNN
F 4 "GRM188R61H105KAALD" H 5500 4000 60  0001 C CNN "partno"
	1    5500 4000
	0    1    1    0   
$EndComp
$Comp
L C C21
U 1 1 5B3AFE3F
P 5500 4200
F 0 "C21" H 5525 4300 50  0000 L CNN
F 1 "1uF" H 5525 4100 50  0000 L CNN
F 2 "Capacitors_SMD:C_0603" H 5538 4050 50  0001 C CNN
F 3 "" H 5500 4200 50  0001 C CNN
F 4 "GRM188R61H105KAALD" H 5500 4200 60  0001 C CNN "partno"
	1    5500 4200
	0    1    1    0   
$EndComp
$Comp
L C C22
U 1 1 5B3AFF19
P 6000 3200
F 0 "C22" H 6025 3300 50  0000 L CNN
F 1 "1uF" H 6025 3100 50  0000 L CNN
F 2 "Capacitors_SMD:C_0603" H 6038 3050 50  0001 C CNN
F 3 "" H 6000 3200 50  0001 C CNN
F 4 "GRM188R61H105KAALD" H 6000 3200 60  0001 C CNN "partno"
	1    6000 3200
	0    1    1    0   
$EndComp
$Comp
L C C23
U 1 1 5B3AFF20
P 6000 3400
F 0 "C23" H 6025 3500 50  0000 L CNN
F 1 "1uF" H 6025 3300 50  0000 L CNN
F 2 "Capacitors_SMD:C_0603" H 6038 3250 50  0001 C CNN
F 3 "" H 6000 3400 50  0001 C CNN
F 4 "GRM188R61H105KAALD" H 6000 3400 60  0001 C CNN "partno"
	1    6000 3400
	0    1    1    0   
$EndComp
$Comp
L C C24
U 1 1 5B3AFF27
P 6000 3600
F 0 "C24" H 6025 3700 50  0000 L CNN
F 1 "1uF" H 6025 3500 50  0000 L CNN
F 2 "Capacitors_SMD:C_0603" H 6038 3450 50  0001 C CNN
F 3 "" H 6000 3600 50  0001 C CNN
F 4 "GRM188R61H105KAALD" H 6000 3600 60  0001 C CNN "partno"
	1    6000 3600
	0    1    1    0   
$EndComp
$Comp
L C C25
U 1 1 5B3AFF2E
P 6000 3800
F 0 "C25" H 6025 3900 50  0000 L CNN
F 1 "1uF" H 6025 3700 50  0000 L CNN
F 2 "Capacitors_SMD:C_0603" H 6038 3650 50  0001 C CNN
F 3 "" H 6000 3800 50  0001 C CNN
F 4 "GRM188R61H105KAALD" H 6000 3800 60  0001 C CNN "partno"
	1    6000 3800
	0    1    1    0   
$EndComp
$Comp
L C C26
U 1 1 5B3AFF35
P 6000 4000
F 0 "C26" H 6025 4100 50  0000 L CNN
F 1 "1uF" H 6025 3900 50  0000 L CNN
F 2 "Capacitors_SMD:C_0603" H 6038 3850 50  0001 C CNN
F 3 "" H 6000 4000 50  0001 C CNN
F 4 "GRM188R61H105KAALD" H 6000 4000 60  0001 C CNN "partno"
	1    6000 4000
	0    1    1    0   
$EndComp
$Comp
L C C27
U 1 1 5B3AFF3C
P 6000 4200
F 0 "C27" H 6025 4300 50  0000 L CNN
F 1 "1uF" H 6025 4100 50  0000 L CNN
F 2 "Capacitors_SMD:C_0603" H 6038 4050 50  0001 C CNN
F 3 "" H 6000 4200 50  0001 C CNN
F 4 "GRM188R61H105KAALD" H 6000 4200 60  0001 C CNN "partno"
	1    6000 4200
	0    1    1    0   
$EndComp
$Comp
L C C28
U 1 1 5B3AFF7B
P 6000 4400
F 0 "C28" H 6025 4500 50  0000 L CNN
F 1 "1uF" H 6025 4300 50  0000 L CNN
F 2 "Capacitors_SMD:C_0603" H 6038 4250 50  0001 C CNN
F 3 "" H 6000 4400 50  0001 C CNN
F 4 "GRM188R61H105KAALD" H 6000 4400 60  0001 C CNN "partno"
	1    6000 4400
	0    1    1    0   
$EndComp
$Comp
L C C29
U 1 1 5B3B007B
P 6500 3200
F 0 "C29" H 6525 3300 50  0000 L CNN
F 1 "1uF" H 6525 3100 50  0000 L CNN
F 2 "Capacitors_SMD:C_0603" H 6538 3050 50  0001 C CNN
F 3 "" H 6500 3200 50  0001 C CNN
F 4 "GRM188R61H105KAALD" H 6500 3200 60  0001 C CNN "partno"
	1    6500 3200
	0    1    1    0   
$EndComp
$Comp
L C C30
U 1 1 5B3B0082
P 6500 3400
F 0 "C30" H 6525 3500 50  0000 L CNN
F 1 "1uF" H 6525 3300 50  0000 L CNN
F 2 "Capacitors_SMD:C_0603" H 6538 3250 50  0001 C CNN
F 3 "" H 6500 3400 50  0001 C CNN
F 4 "GRM188R61H105KAALD" H 6500 3400 60  0001 C CNN "partno"
	1    6500 3400
	0    1    1    0   
$EndComp
$Comp
L C C31
U 1 1 5B3B0089
P 6500 3600
F 0 "C31" H 6525 3700 50  0000 L CNN
F 1 "1uF" H 6525 3500 50  0000 L CNN
F 2 "Capacitors_SMD:C_0603" H 6538 3450 50  0001 C CNN
F 3 "" H 6500 3600 50  0001 C CNN
F 4 "GRM188R61H105KAALD" H 6500 3600 60  0001 C CNN "partno"
	1    6500 3600
	0    1    1    0   
$EndComp
$Comp
L C C32
U 1 1 5B3B0090
P 6500 3800
F 0 "C32" H 6525 3900 50  0000 L CNN
F 1 "1uF" H 6525 3700 50  0000 L CNN
F 2 "Capacitors_SMD:C_0603" H 6538 3650 50  0001 C CNN
F 3 "" H 6500 3800 50  0001 C CNN
F 4 "GRM188R61H105KAALD" H 6500 3800 60  0001 C CNN "partno"
	1    6500 3800
	0    1    1    0   
$EndComp
$Comp
L C C33
U 1 1 5B3B0097
P 6500 4000
F 0 "C33" H 6525 4100 50  0000 L CNN
F 1 "1uF" H 6525 3900 50  0000 L CNN
F 2 "Capacitors_SMD:C_0603" H 6538 3850 50  0001 C CNN
F 3 "" H 6500 4000 50  0001 C CNN
F 4 "GRM188R61H105KAALD" H 6500 4000 60  0001 C CNN "partno"
	1    6500 4000
	0    1    1    0   
$EndComp
$Comp
L C C34
U 1 1 5B3B009E
P 6500 4200
F 0 "C34" H 6525 4300 50  0000 L CNN
F 1 "1uF" H 6525 4100 50  0000 L CNN
F 2 "Capacitors_SMD:C_0603" H 6538 4050 50  0001 C CNN
F 3 "" H 6500 4200 50  0001 C CNN
F 4 "GRM188R61H105KAALD" H 6500 4200 60  0001 C CNN "partno"
	1    6500 4200
	0    1    1    0   
$EndComp
$Comp
L C C35
U 1 1 5B3B00A5
P 6500 4400
F 0 "C35" H 6525 4500 50  0000 L CNN
F 1 "1uF" H 6525 4300 50  0000 L CNN
F 2 "Capacitors_SMD:C_0603" H 6538 4250 50  0001 C CNN
F 3 "" H 6500 4400 50  0001 C CNN
F 4 "GRM188R61H105KAALD" H 6500 4400 60  0001 C CNN "partno"
	1    6500 4400
	0    1    1    0   
$EndComp
$Comp
L C C36
U 1 1 5B3B00F4
P 6500 4600
F 0 "C36" H 6525 4700 50  0000 L CNN
F 1 "1uF" H 6525 4500 50  0000 L CNN
F 2 "Capacitors_SMD:C_0603" H 6538 4450 50  0001 C CNN
F 3 "" H 6500 4600 50  0001 C CNN
F 4 "GRM188R61H105KAALD" H 6500 4600 60  0001 C CNN "partno"
	1    6500 4600
	0    1    1    0   
$EndComp
$Comp
L C C37
U 1 1 5B3B022D
P 7000 3200
F 0 "C37" H 7025 3300 50  0000 L CNN
F 1 "1uF" H 7025 3100 50  0000 L CNN
F 2 "Capacitors_SMD:C_0603" H 7038 3050 50  0001 C CNN
F 3 "" H 7000 3200 50  0001 C CNN
F 4 "GRM188R61H105KAALD" H 7000 3200 60  0001 C CNN "partno"
	1    7000 3200
	0    1    1    0   
$EndComp
$Comp
L C C38
U 1 1 5B3B0234
P 7000 3400
F 0 "C38" H 7025 3500 50  0000 L CNN
F 1 "1uF" H 7025 3300 50  0000 L CNN
F 2 "Capacitors_SMD:C_0603" H 7038 3250 50  0001 C CNN
F 3 "" H 7000 3400 50  0001 C CNN
F 4 "GRM188R61H105KAALD" H 7000 3400 60  0001 C CNN "partno"
	1    7000 3400
	0    1    1    0   
$EndComp
$Comp
L C C39
U 1 1 5B3B023B
P 7000 3600
F 0 "C39" H 7025 3700 50  0000 L CNN
F 1 "1uF" H 7025 3500 50  0000 L CNN
F 2 "Capacitors_SMD:C_0603" H 7038 3450 50  0001 C CNN
F 3 "" H 7000 3600 50  0001 C CNN
F 4 "GRM188R61H105KAALD" H 7000 3600 60  0001 C CNN "partno"
	1    7000 3600
	0    1    1    0   
$EndComp
$Comp
L C C40
U 1 1 5B3B0242
P 7000 3800
F 0 "C40" H 7025 3900 50  0000 L CNN
F 1 "1uF" H 7025 3700 50  0000 L CNN
F 2 "Capacitors_SMD:C_0603" H 7038 3650 50  0001 C CNN
F 3 "" H 7000 3800 50  0001 C CNN
F 4 "GRM188R61H105KAALD" H 7000 3800 60  0001 C CNN "partno"
	1    7000 3800
	0    1    1    0   
$EndComp
$Comp
L C C41
U 1 1 5B3B0249
P 7000 4000
F 0 "C41" H 7025 4100 50  0000 L CNN
F 1 "1uF" H 7025 3900 50  0000 L CNN
F 2 "Capacitors_SMD:C_0603" H 7038 3850 50  0001 C CNN
F 3 "" H 7000 4000 50  0001 C CNN
F 4 "GRM188R61H105KAALD" H 7000 4000 60  0001 C CNN "partno"
	1    7000 4000
	0    1    1    0   
$EndComp
$Comp
L C C42
U 1 1 5B3B0250
P 7000 4200
F 0 "C42" H 7025 4300 50  0000 L CNN
F 1 "1uF" H 7025 4100 50  0000 L CNN
F 2 "Capacitors_SMD:C_0603" H 7038 4050 50  0001 C CNN
F 3 "" H 7000 4200 50  0001 C CNN
F 4 "GRM188R61H105KAALD" H 7000 4200 60  0001 C CNN "partno"
	1    7000 4200
	0    1    1    0   
$EndComp
$Comp
L C C43
U 1 1 5B3B0257
P 7000 4400
F 0 "C43" H 7025 4500 50  0000 L CNN
F 1 "1uF" H 7025 4300 50  0000 L CNN
F 2 "Capacitors_SMD:C_0603" H 7038 4250 50  0001 C CNN
F 3 "" H 7000 4400 50  0001 C CNN
F 4 "GRM188R61H105KAALD" H 7000 4400 60  0001 C CNN "partno"
	1    7000 4400
	0    1    1    0   
$EndComp
$Comp
L C C44
U 1 1 5B3B025E
P 7000 4600
F 0 "C44" H 7025 4700 50  0000 L CNN
F 1 "1uF" H 7025 4500 50  0000 L CNN
F 2 "Capacitors_SMD:C_0603" H 7038 4450 50  0001 C CNN
F 3 "" H 7000 4600 50  0001 C CNN
F 4 "GRM188R61H105KAALD" H 7000 4600 60  0001 C CNN "partno"
	1    7000 4600
	0    1    1    0   
$EndComp
$Comp
L C C45
U 1 1 5B3B02BF
P 7000 4800
F 0 "C45" H 7025 4900 50  0000 L CNN
F 1 "1uF" H 7025 4700 50  0000 L CNN
F 2 "Capacitors_SMD:C_0603" H 7038 4650 50  0001 C CNN
F 3 "" H 7000 4800 50  0001 C CNN
F 4 "GRM188R61H105KAALD" H 7000 4800 60  0001 C CNN "partno"
	1    7000 4800
	0    1    1    0   
$EndComp
$EndSCHEMATC
