Component,Description,Part,References,Value,Footprint,Quantity Per PCB,Datasheet,partno
1,"Connector, double row, 02x09, pin header",CONN_02X09,J1,CONN_02X09,Pin_Header_Straight_2x09_Pitch2.54mm,1,,PHDS80G11/RH
2,Resistor,R,R1 R2 R3 R4 R5 R6 R7 R8 R9,100,R_0603,9,,WR06X1000FTL





Component Groups:,2
Component Count:,10
Fitted Components:,10
Number of PCBs:,1
Total components:,10
Schematic Version:,
Schematic Date:,
BoM Date:,6/29/2018 6:34:48 PM
Schematic Source:,D:/HG Robotics Intern 2018/Decade Resistor 1.0/x100 ohms Resistors Decade/x100 ohms Resistors Decade.sch
KiCad Version:,Eeschema 4.0.6
