G04 #@! TF.FileFunction,Legend,Top*
%FSLAX46Y46*%
G04 Gerber Fmt 4.6, Leading zero omitted, Abs format (unit mm)*
G04 Created by KiCad (PCBNEW 4.0.6) date 07/09/18 16:31:54*
%MOMM*%
%LPD*%
G01*
G04 APERTURE LIST*
%ADD10C,0.100000*%
%ADD11C,0.300000*%
%ADD12C,0.120000*%
%ADD13C,0.150000*%
G04 APERTURE END LIST*
D10*
D11*
X3107143Y-10278571D02*
X3107143Y-8778571D01*
X3464286Y-8778571D01*
X3678571Y-8850000D01*
X3821429Y-8992857D01*
X3892857Y-9135714D01*
X3964286Y-9421429D01*
X3964286Y-9635714D01*
X3892857Y-9921429D01*
X3821429Y-10064286D01*
X3678571Y-10207143D01*
X3464286Y-10278571D01*
X3107143Y-10278571D01*
X5178571Y-10207143D02*
X5035714Y-10278571D01*
X4750000Y-10278571D01*
X4607143Y-10207143D01*
X4535714Y-10064286D01*
X4535714Y-9492857D01*
X4607143Y-9350000D01*
X4750000Y-9278571D01*
X5035714Y-9278571D01*
X5178571Y-9350000D01*
X5250000Y-9492857D01*
X5250000Y-9635714D01*
X4535714Y-9778571D01*
X6535714Y-10207143D02*
X6392857Y-10278571D01*
X6107143Y-10278571D01*
X5964285Y-10207143D01*
X5892857Y-10135714D01*
X5821428Y-9992857D01*
X5821428Y-9564286D01*
X5892857Y-9421429D01*
X5964285Y-9350000D01*
X6107143Y-9278571D01*
X6392857Y-9278571D01*
X6535714Y-9350000D01*
X7821428Y-10278571D02*
X7821428Y-9492857D01*
X7749999Y-9350000D01*
X7607142Y-9278571D01*
X7321428Y-9278571D01*
X7178571Y-9350000D01*
X7821428Y-10207143D02*
X7678571Y-10278571D01*
X7321428Y-10278571D01*
X7178571Y-10207143D01*
X7107142Y-10064286D01*
X7107142Y-9921429D01*
X7178571Y-9778571D01*
X7321428Y-9707143D01*
X7678571Y-9707143D01*
X7821428Y-9635714D01*
X9178571Y-10278571D02*
X9178571Y-8778571D01*
X9178571Y-10207143D02*
X9035714Y-10278571D01*
X8750000Y-10278571D01*
X8607142Y-10207143D01*
X8535714Y-10135714D01*
X8464285Y-9992857D01*
X8464285Y-9564286D01*
X8535714Y-9421429D01*
X8607142Y-9350000D01*
X8750000Y-9278571D01*
X9035714Y-9278571D01*
X9178571Y-9350000D01*
X10464285Y-10207143D02*
X10321428Y-10278571D01*
X10035714Y-10278571D01*
X9892857Y-10207143D01*
X9821428Y-10064286D01*
X9821428Y-9492857D01*
X9892857Y-9350000D01*
X10035714Y-9278571D01*
X10321428Y-9278571D01*
X10464285Y-9350000D01*
X10535714Y-9492857D01*
X10535714Y-9635714D01*
X9821428Y-9778571D01*
X13178571Y-10278571D02*
X12678571Y-9564286D01*
X12321428Y-10278571D02*
X12321428Y-8778571D01*
X12892856Y-8778571D01*
X13035714Y-8850000D01*
X13107142Y-8921429D01*
X13178571Y-9064286D01*
X13178571Y-9278571D01*
X13107142Y-9421429D01*
X13035714Y-9492857D01*
X12892856Y-9564286D01*
X12321428Y-9564286D01*
X14392856Y-10207143D02*
X14249999Y-10278571D01*
X13964285Y-10278571D01*
X13821428Y-10207143D01*
X13749999Y-10064286D01*
X13749999Y-9492857D01*
X13821428Y-9350000D01*
X13964285Y-9278571D01*
X14249999Y-9278571D01*
X14392856Y-9350000D01*
X14464285Y-9492857D01*
X14464285Y-9635714D01*
X13749999Y-9778571D01*
X15035713Y-10207143D02*
X15178570Y-10278571D01*
X15464285Y-10278571D01*
X15607142Y-10207143D01*
X15678570Y-10064286D01*
X15678570Y-9992857D01*
X15607142Y-9850000D01*
X15464285Y-9778571D01*
X15249999Y-9778571D01*
X15107142Y-9707143D01*
X15035713Y-9564286D01*
X15035713Y-9492857D01*
X15107142Y-9350000D01*
X15249999Y-9278571D01*
X15464285Y-9278571D01*
X15607142Y-9350000D01*
X16321428Y-10278571D02*
X16321428Y-9278571D01*
X16321428Y-8778571D02*
X16249999Y-8850000D01*
X16321428Y-8921429D01*
X16392856Y-8850000D01*
X16321428Y-8778571D01*
X16321428Y-8921429D01*
X16964285Y-10207143D02*
X17107142Y-10278571D01*
X17392857Y-10278571D01*
X17535714Y-10207143D01*
X17607142Y-10064286D01*
X17607142Y-9992857D01*
X17535714Y-9850000D01*
X17392857Y-9778571D01*
X17178571Y-9778571D01*
X17035714Y-9707143D01*
X16964285Y-9564286D01*
X16964285Y-9492857D01*
X17035714Y-9350000D01*
X17178571Y-9278571D01*
X17392857Y-9278571D01*
X17535714Y-9350000D01*
X18035714Y-9278571D02*
X18607143Y-9278571D01*
X18250000Y-8778571D02*
X18250000Y-10064286D01*
X18321428Y-10207143D01*
X18464286Y-10278571D01*
X18607143Y-10278571D01*
X19321429Y-10278571D02*
X19178571Y-10207143D01*
X19107143Y-10135714D01*
X19035714Y-9992857D01*
X19035714Y-9564286D01*
X19107143Y-9421429D01*
X19178571Y-9350000D01*
X19321429Y-9278571D01*
X19535714Y-9278571D01*
X19678571Y-9350000D01*
X19750000Y-9421429D01*
X19821429Y-9564286D01*
X19821429Y-9992857D01*
X19750000Y-10135714D01*
X19678571Y-10207143D01*
X19535714Y-10278571D01*
X19321429Y-10278571D01*
X20464286Y-10278571D02*
X20464286Y-9278571D01*
X20464286Y-9564286D02*
X20535714Y-9421429D01*
X20607143Y-9350000D01*
X20750000Y-9278571D01*
X20892857Y-9278571D01*
X21321428Y-10207143D02*
X21464285Y-10278571D01*
X21750000Y-10278571D01*
X21892857Y-10207143D01*
X21964285Y-10064286D01*
X21964285Y-9992857D01*
X21892857Y-9850000D01*
X21750000Y-9778571D01*
X21535714Y-9778571D01*
X21392857Y-9707143D01*
X21321428Y-9564286D01*
X21321428Y-9492857D01*
X21392857Y-9350000D01*
X21535714Y-9278571D01*
X21750000Y-9278571D01*
X21892857Y-9350000D01*
X3428572Y-5678571D02*
X4214286Y-4678571D01*
X3428572Y-4678571D02*
X4214286Y-5678571D01*
X16428571Y-5678571D02*
X16285713Y-5607143D01*
X16214285Y-5535714D01*
X16142856Y-5392857D01*
X16142856Y-4964286D01*
X16214285Y-4821429D01*
X16285713Y-4750000D01*
X16428571Y-4678571D01*
X16642856Y-4678571D01*
X16785713Y-4750000D01*
X16857142Y-4821429D01*
X16928571Y-4964286D01*
X16928571Y-5392857D01*
X16857142Y-5535714D01*
X16785713Y-5607143D01*
X16642856Y-5678571D01*
X16428571Y-5678571D01*
X17571428Y-5678571D02*
X17571428Y-4178571D01*
X18214285Y-5678571D02*
X18214285Y-4892857D01*
X18142856Y-4750000D01*
X17999999Y-4678571D01*
X17785714Y-4678571D01*
X17642856Y-4750000D01*
X17571428Y-4821429D01*
X18928571Y-5678571D02*
X18928571Y-4678571D01*
X18928571Y-4821429D02*
X18999999Y-4750000D01*
X19142857Y-4678571D01*
X19357142Y-4678571D01*
X19499999Y-4750000D01*
X19571428Y-4892857D01*
X19571428Y-5678571D01*
X19571428Y-4892857D02*
X19642857Y-4750000D01*
X19785714Y-4678571D01*
X19999999Y-4678571D01*
X20142857Y-4750000D01*
X20214285Y-4892857D01*
X20214285Y-5678571D01*
X20857142Y-5607143D02*
X20999999Y-5678571D01*
X21285714Y-5678571D01*
X21428571Y-5607143D01*
X21499999Y-5464286D01*
X21499999Y-5392857D01*
X21428571Y-5250000D01*
X21285714Y-5178571D01*
X21071428Y-5178571D01*
X20928571Y-5107143D01*
X20857142Y-4964286D01*
X20857142Y-4892857D01*
X20928571Y-4750000D01*
X21071428Y-4678571D01*
X21285714Y-4678571D01*
X21428571Y-4750000D01*
D12*
X24112000Y-18610500D02*
X24112000Y-13410500D01*
X3732000Y-18610500D02*
X24112000Y-18610500D01*
X1132000Y-13410500D02*
X24112000Y-13410500D01*
X3732000Y-18610500D02*
X3732000Y-16010500D01*
X3732000Y-16010500D02*
X1132000Y-16010500D01*
X1132000Y-16010500D02*
X1132000Y-13410500D01*
X2462000Y-18610500D02*
X1132000Y-18610500D01*
X1132000Y-18610500D02*
X1132000Y-17280500D01*
D13*
X966667Y-12052381D02*
X966667Y-12766667D01*
X919047Y-12909524D01*
X823809Y-13004762D01*
X680952Y-13052381D01*
X585714Y-13052381D01*
X1966667Y-13052381D02*
X1395238Y-13052381D01*
X1680952Y-13052381D02*
X1680952Y-12052381D01*
X1585714Y-12195238D01*
X1490476Y-12290476D01*
X1395238Y-12338095D01*
M02*
