G04 #@! TF.FileFunction,Soldermask,Top*
%FSLAX46Y46*%
G04 Gerber Fmt 4.6, Leading zero omitted, Abs format (unit mm)*
G04 Created by KiCad (PCBNEW 4.0.6) date 07/09/18 16:31:54*
%MOMM*%
%LPD*%
G01*
G04 APERTURE LIST*
%ADD10C,0.100000*%
%ADD11R,2.100000X2.100000*%
%ADD12O,2.100000X2.100000*%
G04 APERTURE END LIST*
D10*
D11*
X2462000Y-17280500D03*
D12*
X2462000Y-14740500D03*
X5002000Y-17280500D03*
X5002000Y-14740500D03*
X7542000Y-17280500D03*
X7542000Y-14740500D03*
X10082000Y-17280500D03*
X10082000Y-14740500D03*
X12622000Y-17280500D03*
X12622000Y-14740500D03*
X15162000Y-17280500D03*
X15162000Y-14740500D03*
X17702000Y-17280500D03*
X17702000Y-14740500D03*
X20242000Y-17280500D03*
X20242000Y-14740500D03*
X22782000Y-17280500D03*
X22782000Y-14740500D03*
M02*
